﻿/ignoreAccessChecks
/metadataFile "D:\uwp\Visual2019\final\vagrantuwp\Vagrant_V1\obj\x64\Release\ilc\intermediate\ILTransformed\Vagrant_V1.metadata"
/gvmAssemblyName "Vagrant_V1.McgInterop"
/o
/sharedGenerics
/ilmergeinfo "D:\uwp\Visual2019\final\vagrantuwp\Vagrant_V1\obj\x64\Release\ilc\intermediate\ILTransformed\Vagrant_V1.csv"
/buildExpandedTocFiles
/multiFile
/sharedGenericsMode StandardUniversalGenericsHeuristics
/ResourcesDirectory "D:\uwp\Visual2019\final\vagrantuwp\Vagrant_V1\obj\x64\Release\ilc\intermediate\Resources"
/subsystem windows
/emitStackTraceMetadata
/in "D:\uwp\Visual2019\final\vagrantuwp\Vagrant_V1\obj\x64\Release\ilc\intermediate\ILTransformed\Vagrant_V1.ilexe"
/in "D:\uwp\Visual2019\final\vagrantuwp\Vagrant_V1\obj\x64\Release\ilc\intermediate\ILTransformed\ColorCode.Core.ildll"
/in "D:\uwp\Visual2019\final\vagrantuwp\Vagrant_V1\obj\x64\Release\ilc\intermediate\ILTransformed\ColorCode.UWP.ildll"
/in "D:\uwp\Visual2019\final\vagrantuwp\Vagrant_V1\obj\x64\Release\ilc\intermediate\ILTransformed\CommonServiceLocator.ildll"
/in "D:\uwp\Visual2019\final\vagrantuwp\Vagrant_V1\obj\x64\Release\ilc\intermediate\ILTransformed\Cyotek.Drawing.BitmapFont.ildll"
/in "D:\uwp\Visual2019\final\vagrantuwp\Vagrant_V1\obj\x64\Release\ilc\intermediate\ILTransformed\GalaSoft.MvvmLight.Extras.ildll"
/in "D:\uwp\Visual2019\final\vagrantuwp\Vagrant_V1\obj\x64\Release\ilc\intermediate\ILTransformed\GalaSoft.MvvmLight.ildll"
/in "D:\uwp\Visual2019\final\vagrantuwp\Vagrant_V1\obj\x64\Release\ilc\intermediate\ILTransformed\GalaSoft.MvvmLight.Platform.ildll"
/in "D:\uwp\Visual2019\final\vagrantuwp\Vagrant_V1\obj\x64\Release\ilc\intermediate\ILTransformed\HelixToolkit.ildll"
/in "D:\uwp\Visual2019\final\vagrantuwp\Vagrant_V1\obj\x64\Release\ilc\intermediate\ILTransformed\HelixToolkit.UWP.ildll"
/in "D:\uwp\Visual2019\final\vagrantuwp\Vagrant_V1\obj\x64\Release\ilc\intermediate\ILTransformed\Microsoft.Toolkit.ildll"
/in "D:\uwp\Visual2019\final\vagrantuwp\Vagrant_V1\obj\x64\Release\ilc\intermediate\ILTransformed\Microsoft.Toolkit.Parsers.ildll"
/in "D:\uwp\Visual2019\final\vagrantuwp\Vagrant_V1\obj\x64\Release\ilc\intermediate\ILTransformed\Microsoft.Toolkit.Uwp.ildll"
/in "D:\uwp\Visual2019\final\vagrantuwp\Vagrant_V1\obj\x64\Release\ilc\intermediate\ILTransformed\Microsoft.Toolkit.Uwp.UI.Animations.ildll"
/in "D:\uwp\Visual2019\final\vagrantuwp\Vagrant_V1\obj\x64\Release\ilc\intermediate\ILTransformed\Microsoft.Toolkit.Uwp.UI.Controls.DataGrid.ildll"
/in "D:\uwp\Visual2019\final\vagrantuwp\Vagrant_V1\obj\x64\Release\ilc\intermediate\ILTransformed\Microsoft.Toolkit.Uwp.UI.Controls.ildll"
/in "D:\uwp\Visual2019\final\vagrantuwp\Vagrant_V1\obj\x64\Release\ilc\intermediate\ILTransformed\Microsoft.Toolkit.Uwp.UI.ildll"
/in "D:\uwp\Visual2019\final\vagrantuwp\Vagrant_V1\obj\x64\Release\ilc\intermediate\ILTransformed\Microsoft.Win32.Primitives.ildll"
/in "D:\uwp\Visual2019\final\vagrantuwp\Vagrant_V1\obj\x64\Release\ilc\intermediate\ILTransformed\Microsoft.Xaml.Interactions.ildll"
/in "D:\uwp\Visual2019\final\vagrantuwp\Vagrant_V1\obj\x64\Release\ilc\intermediate\ILTransformed\Microsoft.Xaml.Interactivity.ildll"
/in "D:\uwp\Visual2019\final\vagrantuwp\Vagrant_V1\obj\x64\Release\ilc\intermediate\ILTransformed\Newtonsoft.Json.Bson.ildll"
/in "D:\uwp\Visual2019\final\vagrantuwp\Vagrant_V1\obj\x64\Release\ilc\intermediate\ILTransformed\Newtonsoft.Json.ildll"
/in "D:\uwp\Visual2019\final\vagrantuwp\Vagrant_V1\obj\x64\Release\ilc\intermediate\ILTransformed\SharpDX.D3DCompiler.ildll"
/in "D:\uwp\Visual2019\final\vagrantuwp\Vagrant_V1\obj\x64\Release\ilc\intermediate\ILTransformed\SharpDX.Direct2D1.ildll"
/in "D:\uwp\Visual2019\final\vagrantuwp\Vagrant_V1\obj\x64\Release\ilc\intermediate\ILTransformed\SharpDX.Direct3D11.ildll"
/in "D:\uwp\Visual2019\final\vagrantuwp\Vagrant_V1\obj\x64\Release\ilc\intermediate\ILTransformed\SharpDX.DXGI.ildll"
/in "D:\uwp\Visual2019\final\vagrantuwp\Vagrant_V1\obj\x64\Release\ilc\intermediate\ILTransformed\SharpDX.ildll"
/in "D:\uwp\Visual2019\final\vagrantuwp\Vagrant_V1\obj\x64\Release\ilc\intermediate\ILTransformed\SharpDX.Mathematics.ildll"
/in "D:\uwp\Visual2019\final\vagrantuwp\Vagrant_V1\obj\x64\Release\ilc\intermediate\ILTransformed\System.Collections.NonGeneric.ildll"
/in "D:\uwp\Visual2019\final\vagrantuwp\Vagrant_V1\obj\x64\Release\ilc\intermediate\ILTransformed\System.Collections.Specialized.ildll"
/in "D:\uwp\Visual2019\final\vagrantuwp\Vagrant_V1\obj\x64\Release\ilc\intermediate\ILTransformed\System.ComponentModel.Annotations.ildll"
/in "D:\uwp\Visual2019\final\vagrantuwp\Vagrant_V1\obj\x64\Release\ilc\intermediate\ILTransformed\System.ComponentModel.EventBasedAsync.ildll"
/in "D:\uwp\Visual2019\final\vagrantuwp\Vagrant_V1\obj\x64\Release\ilc\intermediate\ILTransformed\System.ComponentModel.ildll"
/in "D:\uwp\Visual2019\final\vagrantuwp\Vagrant_V1\obj\x64\Release\ilc\intermediate\ILTransformed\System.ComponentModel.Primitives.ildll"
/in "D:\uwp\Visual2019\final\vagrantuwp\Vagrant_V1\obj\x64\Release\ilc\intermediate\ILTransformed\System.ComponentModel.TypeConverter.ildll"
/in "D:\uwp\Visual2019\final\vagrantuwp\Vagrant_V1\obj\x64\Release\ilc\intermediate\ILTransformed\System.Console.ildll"
/in "D:\uwp\Visual2019\final\vagrantuwp\Vagrant_V1\obj\x64\Release\ilc\intermediate\ILTransformed\System.Data.Common.ildll"
/in "D:\uwp\Visual2019\final\vagrantuwp\Vagrant_V1\obj\x64\Release\ilc\intermediate\ILTransformed\System.Diagnostics.DiagnosticSource.ildll"
/in "D:\uwp\Visual2019\final\vagrantuwp\Vagrant_V1\obj\x64\Release\ilc\intermediate\ILTransformed\System.Diagnostics.TraceSource.ildll"
/in "D:\uwp\Visual2019\final\vagrantuwp\Vagrant_V1\obj\x64\Release\ilc\intermediate\ILTransformed\System.Drawing.Primitives.ildll"
/in "D:\uwp\Visual2019\final\vagrantuwp\Vagrant_V1\obj\x64\Release\ilc\intermediate\ILTransformed\System.IO.Compression.ildll"
/in "D:\uwp\Visual2019\final\vagrantuwp\Vagrant_V1\obj\x64\Release\ilc\intermediate\ILTransformed\System.IO.FileSystem.ildll"
/in "D:\uwp\Visual2019\final\vagrantuwp\Vagrant_V1\obj\x64\Release\ilc\intermediate\ILTransformed\System.Net.Http.Formatting.ildll"
/in "D:\uwp\Visual2019\final\vagrantuwp\Vagrant_V1\obj\x64\Release\ilc\intermediate\ILTransformed\System.Net.Http.ildll"
/in "D:\uwp\Visual2019\final\vagrantuwp\Vagrant_V1\obj\x64\Release\ilc\intermediate\ILTransformed\System.Net.NameResolution.ildll"
/in "D:\uwp\Visual2019\final\vagrantuwp\Vagrant_V1\obj\x64\Release\ilc\intermediate\ILTransformed\System.Net.Primitives.ildll"
/in "D:\uwp\Visual2019\final\vagrantuwp\Vagrant_V1\obj\x64\Release\ilc\intermediate\ILTransformed\System.Net.Requests.ildll"
/in "D:\uwp\Visual2019\final\vagrantuwp\Vagrant_V1\obj\x64\Release\ilc\intermediate\ILTransformed\System.Net.Security.ildll"
/in "D:\uwp\Visual2019\final\vagrantuwp\Vagrant_V1\obj\x64\Release\ilc\intermediate\ILTransformed\System.Net.ServicePoint.ildll"
/in "D:\uwp\Visual2019\final\vagrantuwp\Vagrant_V1\obj\x64\Release\ilc\intermediate\ILTransformed\System.Net.Sockets.ildll"
/in "D:\uwp\Visual2019\final\vagrantuwp\Vagrant_V1\obj\x64\Release\ilc\intermediate\ILTransformed\System.Net.WebHeaderCollection.ildll"
/in "D:\uwp\Visual2019\final\vagrantuwp\Vagrant_V1\obj\x64\Release\ilc\intermediate\ILTransformed\System.Numerics.Vectors.ildll"
/in "D:\uwp\Visual2019\final\vagrantuwp\Vagrant_V1\obj\x64\Release\ilc\intermediate\ILTransformed\System.Numerics.Vectors.WindowsRuntime.ildll"
/in "D:\uwp\Visual2019\final\vagrantuwp\Vagrant_V1\obj\x64\Release\ilc\intermediate\ILTransformed\System.Private.DataContractSerialization.ildll"
/in "D:\uwp\Visual2019\final\vagrantuwp\Vagrant_V1\obj\x64\Release\ilc\intermediate\ILTransformed\System.Private.DeveloperExperience.AppX.ildll"
/in "D:\uwp\Visual2019\final\vagrantuwp\Vagrant_V1\obj\x64\Release\ilc\intermediate\ILTransformed\System.Private.StackTraceGenerator.ildll"
/in "D:\uwp\Visual2019\final\vagrantuwp\Vagrant_V1\obj\x64\Release\ilc\intermediate\ILTransformed\System.Private.Vagrant_V1.Generated.ildll"
/in "D:\uwp\Visual2019\final\vagrantuwp\Vagrant_V1\obj\x64\Release\ilc\intermediate\ILTransformed\System.Private.WinRTInterop.CoreLib.ildll"
/in "D:\uwp\Visual2019\final\vagrantuwp\Vagrant_V1\obj\x64\Release\ilc\intermediate\ILTransformed\System.Private.Xml.ildll"
/in "D:\uwp\Visual2019\final\vagrantuwp\Vagrant_V1\obj\x64\Release\ilc\intermediate\ILTransformed\System.Private.Xml.Linq.ildll"
/in "D:\uwp\Visual2019\final\vagrantuwp\Vagrant_V1\obj\x64\Release\ilc\intermediate\ILTransformed\System.Resources.Writer.ildll"
/in "D:\uwp\Visual2019\final\vagrantuwp\Vagrant_V1\obj\x64\Release\ilc\intermediate\ILTransformed\System.Runtime.CompilerServices.Unsafe.ildll"
/in "D:\uwp\Visual2019\final\vagrantuwp\Vagrant_V1\obj\x64\Release\ilc\intermediate\ILTransformed\System.Runtime.InteropServices.ildll"
/in "D:\uwp\Visual2019\final\vagrantuwp\Vagrant_V1\obj\x64\Release\ilc\intermediate\ILTransformed\System.Runtime.InteropServices.RuntimeInformation.ildll"
/in "D:\uwp\Visual2019\final\vagrantuwp\Vagrant_V1\obj\x64\Release\ilc\intermediate\ILTransformed\System.Runtime.InteropServices.WindowsRuntime.ildll"
/in "D:\uwp\Visual2019\final\vagrantuwp\Vagrant_V1\obj\x64\Release\ilc\intermediate\ILTransformed\System.Runtime.Numerics.ildll"
/in "D:\uwp\Visual2019\final\vagrantuwp\Vagrant_V1\obj\x64\Release\ilc\intermediate\ILTransformed\System.Runtime.Serialization.Formatters.ildll"
/in "D:\uwp\Visual2019\final\vagrantuwp\Vagrant_V1\obj\x64\Release\ilc\intermediate\ILTransformed\System.Runtime.Serialization.Generated.ildll"
/in "D:\uwp\Visual2019\final\vagrantuwp\Vagrant_V1\obj\x64\Release\ilc\intermediate\ILTransformed\System.Runtime.Serialization.Generated.Intermediate.ildll"
/in "D:\uwp\Visual2019\final\vagrantuwp\Vagrant_V1\obj\x64\Release\ilc\intermediate\ILTransformed\System.Runtime.Serialization.Primitives.ildll"
/in "D:\uwp\Visual2019\final\vagrantuwp\Vagrant_V1\obj\x64\Release\ilc\intermediate\ILTransformed\System.Runtime.WindowsRuntime.ildll"
/in "D:\uwp\Visual2019\final\vagrantuwp\Vagrant_V1\obj\x64\Release\ilc\intermediate\ILTransformed\System.Runtime.WindowsRuntime.UI.Xaml.ildll"
/in "D:\uwp\Visual2019\final\vagrantuwp\Vagrant_V1\obj\x64\Release\ilc\intermediate\ILTransformed\System.Security.Claims.ildll"
/in "D:\uwp\Visual2019\final\vagrantuwp\Vagrant_V1\obj\x64\Release\ilc\intermediate\ILTransformed\System.Security.Cryptography.Algorithms.ildll"
/in "D:\uwp\Visual2019\final\vagrantuwp\Vagrant_V1\obj\x64\Release\ilc\intermediate\ILTransformed\System.Security.Cryptography.Cng.ildll"
/in "D:\uwp\Visual2019\final\vagrantuwp\Vagrant_V1\obj\x64\Release\ilc\intermediate\ILTransformed\System.Security.Cryptography.Csp.ildll"
/in "D:\uwp\Visual2019\final\vagrantuwp\Vagrant_V1\obj\x64\Release\ilc\intermediate\ILTransformed\System.Security.Cryptography.Encoding.ildll"
/in "D:\uwp\Visual2019\final\vagrantuwp\Vagrant_V1\obj\x64\Release\ilc\intermediate\ILTransformed\System.Security.Cryptography.Primitives.ildll"
/in "D:\uwp\Visual2019\final\vagrantuwp\Vagrant_V1\obj\x64\Release\ilc\intermediate\ILTransformed\System.Security.Cryptography.X509Certificates.ildll"
/in "D:\uwp\Visual2019\final\vagrantuwp\Vagrant_V1\obj\x64\Release\ilc\intermediate\ILTransformed\System.Security.Principal.Windows.ildll"
/in "D:\uwp\Visual2019\final\vagrantuwp\Vagrant_V1\obj\x64\Release\ilc\intermediate\ILTransformed\System.Text.Encoding.CodePages.ildll"
/in "D:\uwp\Visual2019\final\vagrantuwp\Vagrant_V1\obj\x64\Release\ilc\intermediate\ILTransformed\System.Threading.Overlapped.ildll"
/in "D:\uwp\Visual2019\final\vagrantuwp\Vagrant_V1\obj\x64\Release\ilc\intermediate\ILTransformed\System.Threading.Tasks.Parallel.ildll"
/in "D:\uwp\Visual2019\final\vagrantuwp\Vagrant_V1\obj\x64\Release\ilc\intermediate\ILTransformed\System.Threading.Thread.ildll"
/in "D:\uwp\Visual2019\final\vagrantuwp\Vagrant_V1\obj\x64\Release\ilc\intermediate\ILTransformed\System.Transactions.Local.ildll"
/in "D:\uwp\Visual2019\final\vagrantuwp\Vagrant_V1\obj\x64\Release\ilc\intermediate\ILTransformed\Vagrant_V1.McgInterop.ildll"
/in "D:\uwp\Visual2019\final\vagrantuwp\Vagrant_V1\obj\x64\Release\ilc\intermediate\ILTransformed\Xamarin.Forms.Core.ildll"
/in "D:\uwp\Visual2019\final\vagrantuwp\Vagrant_V1\obj\x64\Release\ilc\intermediate\ILTransformed\Xamarin.Forms.Platform.ildll"
/in "D:\uwp\Visual2019\final\vagrantuwp\Vagrant_V1\obj\x64\Release\ilc\intermediate\ILTransformed\Xamarin.Forms.Platform.UAP.ildll"
/in "D:\uwp\Visual2019\final\vagrantuwp\Vagrant_V1\obj\x64\Release\ilc\intermediate\ILTransformed\Xamarin.Forms.Xaml.ildll"
/out "D:\uwp\Visual2019\final\vagrantuwp\Vagrant_V1\obj\x64\Release\ilc\intermediate\MDIL\Vagrant_V1.mdilexe"
/iltoc "C:\Program Files (x86)\Microsoft SDKs\UWPNuGetPackages\runtime.win10-x64.microsoft.net.native.sharedlibrary\2.2.7-rel-27913-00\tools\SharedLibrary\ret\ILToc\System.Collections.iltoc*SharedLibrary"
/iltoc "C:\Program Files (x86)\Microsoft SDKs\UWPNuGetPackages\runtime.win10-x64.microsoft.net.native.sharedlibrary\2.2.7-rel-27913-00\tools\SharedLibrary\ret\ILToc\System.Collections.Concurrent.iltoc*SharedLibrary"
/iltoc "C:\Program Files (x86)\Microsoft SDKs\UWPNuGetPackages\runtime.win10-x64.microsoft.net.native.sharedlibrary\2.2.7-rel-27913-00\tools\SharedLibrary\ret\ILToc\System.Diagnostics.Tools.iltoc*SharedLibrary"
/iltoc "C:\Program Files (x86)\Microsoft SDKs\UWPNuGetPackages\runtime.win10-x64.microsoft.net.native.sharedlibrary\2.2.7-rel-27913-00\tools\SharedLibrary\ret\ILToc\System.Diagnostics.Tracing.iltoc*SharedLibrary"
/iltoc "C:\Program Files (x86)\Microsoft SDKs\UWPNuGetPackages\runtime.win10-x64.microsoft.net.native.sharedlibrary\2.2.7-rel-27913-00\tools\SharedLibrary\ret\ILToc\System.Linq.iltoc*SharedLibrary"
/iltoc "C:\Program Files (x86)\Microsoft SDKs\UWPNuGetPackages\runtime.win10-x64.microsoft.net.native.sharedlibrary\2.2.7-rel-27913-00\tools\SharedLibrary\ret\ILToc\System.Linq.Expressions.iltoc*SharedLibrary"
/iltoc "C:\Program Files (x86)\Microsoft SDKs\UWPNuGetPackages\runtime.win10-x64.microsoft.net.native.sharedlibrary\2.2.7-rel-27913-00\tools\SharedLibrary\ret\ILToc\System.Memory.iltoc*SharedLibrary"
/iltoc "C:\Program Files (x86)\Microsoft SDKs\UWPNuGetPackages\runtime.win10-x64.microsoft.net.native.sharedlibrary\2.2.7-rel-27913-00\tools\SharedLibrary\ret\ILToc\System.ObjectModel.iltoc*SharedLibrary"
/iltoc "C:\Program Files (x86)\Microsoft SDKs\UWPNuGetPackages\runtime.win10-x64.microsoft.net.native.sharedlibrary\2.2.7-rel-27913-00\tools\SharedLibrary\ret\ILToc\System.Private.CoreLib.iltoc*SharedLibrary"
/iltoc "C:\Program Files (x86)\Microsoft SDKs\UWPNuGetPackages\runtime.win10-x64.microsoft.net.native.sharedlibrary\2.2.7-rel-27913-00\tools\SharedLibrary\ret\ILToc\System.Private.Interop.iltoc*SharedLibrary"
/iltoc "C:\Program Files (x86)\Microsoft SDKs\UWPNuGetPackages\runtime.win10-x64.microsoft.net.native.sharedlibrary\2.2.7-rel-27913-00\tools\SharedLibrary\ret\ILToc\System.Private.Reflection.Core.iltoc*SharedLibrary"
/iltoc "C:\Program Files (x86)\Microsoft SDKs\UWPNuGetPackages\runtime.win10-x64.microsoft.net.native.sharedlibrary\2.2.7-rel-27913-00\tools\SharedLibrary\ret\ILToc\System.Private.Reflection.Execution.iltoc*SharedLibrary"
/iltoc "C:\Program Files (x86)\Microsoft SDKs\UWPNuGetPackages\runtime.win10-x64.microsoft.net.native.sharedlibrary\2.2.7-rel-27913-00\tools\SharedLibrary\ret\ILToc\System.Private.Reflection.Metadata.iltoc*SharedLibrary"
/iltoc "C:\Program Files (x86)\Microsoft SDKs\UWPNuGetPackages\runtime.win10-x64.microsoft.net.native.sharedlibrary\2.2.7-rel-27913-00\tools\SharedLibrary\ret\ILToc\System.Private.StackTraceMetadata.iltoc*SharedLibrary"
/iltoc "C:\Program Files (x86)\Microsoft SDKs\UWPNuGetPackages\runtime.win10-x64.microsoft.net.native.sharedlibrary\2.2.7-rel-27913-00\tools\SharedLibrary\ret\ILToc\System.Private.Threading.iltoc*SharedLibrary"
/iltoc "C:\Program Files (x86)\Microsoft SDKs\UWPNuGetPackages\runtime.win10-x64.microsoft.net.native.sharedlibrary\2.2.7-rel-27913-00\tools\SharedLibrary\ret\ILToc\System.Private.TypeLoader.iltoc*SharedLibrary"
/iltoc "C:\Program Files (x86)\Microsoft SDKs\UWPNuGetPackages\runtime.win10-x64.microsoft.net.native.sharedlibrary\2.2.7-rel-27913-00\tools\SharedLibrary\ret\ILToc\System.Private.Uri.iltoc*SharedLibrary"
/iltoc "C:\Program Files (x86)\Microsoft SDKs\UWPNuGetPackages\runtime.win10-x64.microsoft.net.native.sharedlibrary\2.2.7-rel-27913-00\tools\SharedLibrary\ret\ILToc\System.Reflection.TypeExtensions.iltoc*SharedLibrary"
/iltoc "C:\Program Files (x86)\Microsoft SDKs\UWPNuGetPackages\runtime.win10-x64.microsoft.net.native.sharedlibrary\2.2.7-rel-27913-00\tools\SharedLibrary\ret\ILToc\System.Runtime.iltoc*SharedLibrary"
/iltoc "C:\Program Files (x86)\Microsoft SDKs\UWPNuGetPackages\runtime.win10-x64.microsoft.net.native.sharedlibrary\2.2.7-rel-27913-00\tools\SharedLibrary\ret\ILToc\System.Runtime.Extensions.iltoc*SharedLibrary"
/iltoc "C:\Program Files (x86)\Microsoft SDKs\UWPNuGetPackages\runtime.win10-x64.microsoft.net.native.sharedlibrary\2.2.7-rel-27913-00\tools\SharedLibrary\ret\ILToc\System.Security.Principal.iltoc*SharedLibrary"
/iltoc "C:\Program Files (x86)\Microsoft SDKs\UWPNuGetPackages\runtime.win10-x64.microsoft.net.native.sharedlibrary\2.2.7-rel-27913-00\tools\SharedLibrary\ret\ILToc\System.Text.RegularExpressions.iltoc*SharedLibrary"
/iltoc "C:\Program Files (x86)\Microsoft SDKs\UWPNuGetPackages\runtime.win10-x64.microsoft.net.native.sharedlibrary\2.2.7-rel-27913-00\tools\SharedLibrary\ret\ILToc\System.Threading.iltoc*SharedLibrary"
/iltoc "C:\Program Files (x86)\Microsoft SDKs\UWPNuGetPackages\runtime.win10-x64.microsoft.net.native.sharedlibrary\2.2.7-rel-27913-00\tools\SharedLibrary\ret\ILToc\System.Private.SharedLibrary.Generated.iltoc*SharedLibrary"
/iltoc "C:\Program Files (x86)\Microsoft SDKs\UWPNuGetPackages\runtime.win10-x64.microsoft.net.native.sharedlibrary\2.2.7-rel-27913-00\tools\SharedLibrary\ret\ILToc\System.Private.SharedLibrary.Interop.Generated.iltoc*SharedLibrary"
/toc "C:\Program Files (x86)\Microsoft SDKs\UWPNuGetPackages\runtime.win10-x64.microsoft.net.native.sharedlibrary\2.2.7-rel-27913-00\tools\SharedLibrary\ret\Toc\System.Collections.toc"
/toc "C:\Program Files (x86)\Microsoft SDKs\UWPNuGetPackages\runtime.win10-x64.microsoft.net.native.sharedlibrary\2.2.7-rel-27913-00\tools\SharedLibrary\ret\Toc\System.Collections.Concurrent.toc"
/toc "C:\Program Files (x86)\Microsoft SDKs\UWPNuGetPackages\runtime.win10-x64.microsoft.net.native.sharedlibrary\2.2.7-rel-27913-00\tools\SharedLibrary\ret\Toc\System.Diagnostics.Tools.toc"
/toc "C:\Program Files (x86)\Microsoft SDKs\UWPNuGetPackages\runtime.win10-x64.microsoft.net.native.sharedlibrary\2.2.7-rel-27913-00\tools\SharedLibrary\ret\Toc\System.Diagnostics.Tracing.toc"
/toc "C:\Program Files (x86)\Microsoft SDKs\UWPNuGetPackages\runtime.win10-x64.microsoft.net.native.sharedlibrary\2.2.7-rel-27913-00\tools\SharedLibrary\ret\Toc\System.Linq.toc"
/toc "C:\Program Files (x86)\Microsoft SDKs\UWPNuGetPackages\runtime.win10-x64.microsoft.net.native.sharedlibrary\2.2.7-rel-27913-00\tools\SharedLibrary\ret\Toc\System.Linq.Expressions.toc"
/toc "C:\Program Files (x86)\Microsoft SDKs\UWPNuGetPackages\runtime.win10-x64.microsoft.net.native.sharedlibrary\2.2.7-rel-27913-00\tools\SharedLibrary\ret\Toc\System.Memory.toc"
/toc "C:\Program Files (x86)\Microsoft SDKs\UWPNuGetPackages\runtime.win10-x64.microsoft.net.native.sharedlibrary\2.2.7-rel-27913-00\tools\SharedLibrary\ret\Toc\System.ObjectModel.toc"
/toc "C:\Program Files (x86)\Microsoft SDKs\UWPNuGetPackages\runtime.win10-x64.microsoft.net.native.sharedlibrary\2.2.7-rel-27913-00\tools\SharedLibrary\ret\Toc\System.Private.CoreLib.toc"
/toc "C:\Program Files (x86)\Microsoft SDKs\UWPNuGetPackages\runtime.win10-x64.microsoft.net.native.sharedlibrary\2.2.7-rel-27913-00\tools\SharedLibrary\ret\Toc\System.Private.Interop.toc"
/toc "C:\Program Files (x86)\Microsoft SDKs\UWPNuGetPackages\runtime.win10-x64.microsoft.net.native.sharedlibrary\2.2.7-rel-27913-00\tools\SharedLibrary\ret\Toc\System.Private.Reflection.Core.toc"
/toc "C:\Program Files (x86)\Microsoft SDKs\UWPNuGetPackages\runtime.win10-x64.microsoft.net.native.sharedlibrary\2.2.7-rel-27913-00\tools\SharedLibrary\ret\Toc\System.Private.Reflection.Execution.toc"
/toc "C:\Program Files (x86)\Microsoft SDKs\UWPNuGetPackages\runtime.win10-x64.microsoft.net.native.sharedlibrary\2.2.7-rel-27913-00\tools\SharedLibrary\ret\Toc\System.Private.Reflection.Metadata.toc"
/toc "C:\Program Files (x86)\Microsoft SDKs\UWPNuGetPackages\runtime.win10-x64.microsoft.net.native.sharedlibrary\2.2.7-rel-27913-00\tools\SharedLibrary\ret\Toc\System.Private.StackTraceMetadata.toc"
/toc "C:\Program Files (x86)\Microsoft SDKs\UWPNuGetPackages\runtime.win10-x64.microsoft.net.native.sharedlibrary\2.2.7-rel-27913-00\tools\SharedLibrary\ret\Toc\System.Private.Threading.toc"
/toc "C:\Program Files (x86)\Microsoft SDKs\UWPNuGetPackages\runtime.win10-x64.microsoft.net.native.sharedlibrary\2.2.7-rel-27913-00\tools\SharedLibrary\ret\Toc\System.Private.TypeLoader.toc"
/toc "C:\Program Files (x86)\Microsoft SDKs\UWPNuGetPackages\runtime.win10-x64.microsoft.net.native.sharedlibrary\2.2.7-rel-27913-00\tools\SharedLibrary\ret\Toc\System.Private.Uri.toc"
/toc "C:\Program Files (x86)\Microsoft SDKs\UWPNuGetPackages\runtime.win10-x64.microsoft.net.native.sharedlibrary\2.2.7-rel-27913-00\tools\SharedLibrary\ret\Toc\System.Reflection.TypeExtensions.toc"
/toc "C:\Program Files (x86)\Microsoft SDKs\UWPNuGetPackages\runtime.win10-x64.microsoft.net.native.sharedlibrary\2.2.7-rel-27913-00\tools\SharedLibrary\ret\Toc\System.Runtime.toc"
/toc "C:\Program Files (x86)\Microsoft SDKs\UWPNuGetPackages\runtime.win10-x64.microsoft.net.native.sharedlibrary\2.2.7-rel-27913-00\tools\SharedLibrary\ret\Toc\System.Runtime.Extensions.toc"
/toc "C:\Program Files (x86)\Microsoft SDKs\UWPNuGetPackages\runtime.win10-x64.microsoft.net.native.sharedlibrary\2.2.7-rel-27913-00\tools\SharedLibrary\ret\Toc\System.Security.Principal.toc"
/toc "C:\Program Files (x86)\Microsoft SDKs\UWPNuGetPackages\runtime.win10-x64.microsoft.net.native.sharedlibrary\2.2.7-rel-27913-00\tools\SharedLibrary\ret\Toc\System.Text.RegularExpressions.toc"
/toc "C:\Program Files (x86)\Microsoft SDKs\UWPNuGetPackages\runtime.win10-x64.microsoft.net.native.sharedlibrary\2.2.7-rel-27913-00\tools\SharedLibrary\ret\Toc\System.Threading.toc"
/toc "C:\Program Files (x86)\Microsoft SDKs\UWPNuGetPackages\runtime.win10-x64.microsoft.net.native.sharedlibrary\2.2.7-rel-27913-00\tools\SharedLibrary\ret\Toc\System.Private.SharedLibrary.Generated.toc"
/toc "C:\Program Files (x86)\Microsoft SDKs\UWPNuGetPackages\runtime.win10-x64.microsoft.net.native.sharedlibrary\2.2.7-rel-27913-00\tools\SharedLibrary\ret\Toc\System.Private.SharedLibrary.Interop.Generated.toc"
